LabChart's HRV Data Import and Manipulation • labChartHRV
…
Variable’s description are store in this data frame:

HRV_vars_desc
#> # A tibble: 40 × 2
#>    variable      description            
#>    <chr>         <chr>                  
#>  1 File_LabChart LabChart file name     
#>  2 Channel       Channel                
#>  3 Date          Date                   
#>  4 Start_time    Start time             
#>  5 End_time      End time               
#>  6 Name          Name                   
#>  7 Gender        Gender                 
#>  8 Age           Age                    
#>  9 Beats_tot     Total number of beats  
#> 10 Rec_length    Length of recording (s)
#> # … with 30 more rows
…
